﻿Method Name :PostToEMRPortalQueue
Message :Checking ExternalId and MessageData on Model
Date :6/10/2016 5:38:45 PM

-----------------------------------------------------------------------------

Method Name :PostToEMRPortalQueue
Message :Saving into Medflow.POrtalQueueXML table
Date :6/10/2016 5:38:49 PM

-----------------------------------------------------------------------------

Method Name :SavePortalQueueXml
Message :Inserting into Medflow.PortalQueueXML from the received XML
Date :6/10/2016 5:38:55 PM

-----------------------------------------------------------------------------

Method Name :SavePortalQueueXml
Message :Inserting into Medflow.PortalQueueXML Completed
Date :6/10/2016 5:39:08 PM

-----------------------------------------------------------------------------

Method Name :SaveSecureMessageFromPortal
Message :This Method will parse the XML and insert the Records into PatientPortalInbox and PatientPortalInboxHistory
Date :6/10/2016 5:39:11 PM

-----------------------------------------------------------------------------

Method Name :SaveSecureMessageFromPortal
Message :Parsing the Patient Message XML Starts Here!
Date :6/10/2016 5:39:11 PM

-----------------------------------------------------------------------------

Method Name :SaveSecureMessageFromPortal
Message :There's some issue while inserting records into PatientPortalInbox and PatientPortalInboxHistory Tables the error is -There is an error in XML document (0, 0).
Date :6/10/2016 5:39:11 PM

-----------------------------------------------------------------------------

Method Name :PostToEMRPortalQueue
Message :There's some error while accessing PostToEMRPortalQueue Method the Error is - There is an error in XML document (0, 0).
Date :6/10/2016 5:39:11 PM

-----------------------------------------------------------------------------

Method Name :PostToEMRPortalQueue
Message :Checking ExternalId and MessageData on Model
Date :6/10/2016 5:41:05 PM

-----------------------------------------------------------------------------

Method Name :PostToEMRPortalQueue
Message :Saving into Medflow.POrtalQueueXML table
Date :6/10/2016 5:41:05 PM

-----------------------------------------------------------------------------

Method Name :SavePortalQueueXml
Message :Inserting into Medflow.PortalQueueXML from the received XML
Date :6/10/2016 5:41:06 PM

-----------------------------------------------------------------------------

Method Name :SavePortalQueueXml
Message :Inserting into Medflow.PortalQueueXML Completed
Date :6/10/2016 5:41:06 PM

-----------------------------------------------------------------------------

Method Name :SaveSecureMessageFromPortal
Message :This Method will parse the XML and insert the Records into PatientPortalInbox and PatientPortalInboxHistory
Date :6/10/2016 5:41:12 PM

-----------------------------------------------------------------------------

Method Name :SaveSecureMessageFromPortal
Message :Parsing the Patient Message XML Starts Here!
Date :6/10/2016 5:41:20 PM

-----------------------------------------------------------------------------

Method Name :PostToEMRPortalQueue
Message :Checking ExternalId and MessageData on Model
Date :6/10/2016 5:48:23 PM

-----------------------------------------------------------------------------

Method Name :PostToEMRPortalQueue
Message :Saving into Medflow.POrtalQueueXML table
Date :6/10/2016 5:48:25 PM

-----------------------------------------------------------------------------

Method Name :SavePortalQueueXml
Message :Inserting into Medflow.PortalQueueXML from the received XML
Date :6/10/2016 5:48:26 PM

-----------------------------------------------------------------------------

Method Name :SavePortalQueueXml
Message :Inserting into Medflow.PortalQueueXML Completed
Date :6/10/2016 5:48:27 PM

-----------------------------------------------------------------------------

Method Name :SaveSecureMessageFromPortal
Message :This Method will parse the XML and insert the Records into PatientPortalInbox and PatientPortalInboxHistory
Date :6/10/2016 5:48:37 PM

-----------------------------------------------------------------------------

Method Name :SaveSecureMessageFromPortal
Message :Parsing the Patient Message XML Starts Here!
Date :6/10/2016 5:48:41 PM

-----------------------------------------------------------------------------

Method Name :SaveSecureMessageFromPortal
Message :Patient Message XML parsing is Complete
Date :6/10/2016 5:48:44 PM

-----------------------------------------------------------------------------

Method Name :SaveSecureMessageFromPortal
Message :Inserting  into Medflow.PatientPortalInboxHistory Table
Date :6/10/2016 5:48:47 PM

-----------------------------------------------------------------------------

Method Name :PostToEMRPortalQueue
Message :Checking ExternalId and MessageData on Model
Date :6/10/2016 6:09:25 PM

-----------------------------------------------------------------------------

Method Name :PostToEMRPortalQueue
Message :Saving into Medflow.POrtalQueueXML table
Date :6/10/2016 6:09:27 PM

-----------------------------------------------------------------------------

Method Name :SavePortalQueueXml
Message :Inserting into Medflow.PortalQueueXML from the received XML
Date :6/10/2016 6:09:28 PM

-----------------------------------------------------------------------------

Method Name :SavePortalQueueXml
Message :Inserting into Medflow.PortalQueueXML Completed
Date :6/10/2016 6:09:29 PM

-----------------------------------------------------------------------------

Method Name :SaveSecureMessageFromPortal
Message :This Method will parse the XML and insert the Records into PatientPortalInbox and PatientPortalInboxHistory
Date :6/10/2016 6:09:31 PM

-----------------------------------------------------------------------------

Method Name :SaveSecureMessageFromPortal
Message :Parsing the Patient Message XML Starts Here!
Date :6/10/2016 6:09:35 PM

-----------------------------------------------------------------------------

Method Name :SaveSecureMessageFromPortal
Message :Patient Message XML parsing is Complete
Date :6/10/2016 6:09:38 PM

-----------------------------------------------------------------------------

Method Name :SaveSecureMessageFromPortal
Message :Inserting  into Medflow.PatientPortalInboxHistory Table
Date :6/10/2016 6:09:50 PM

-----------------------------------------------------------------------------

Method Name :SaveSecureMessageFromPortal
Message :Inserting into Medflow.PatientPortalInbox Table Completed
Date :6/10/2016 6:09:59 PM

-----------------------------------------------------------------------------

Method Name :PostToEMRPortalQueue
Message :Checking ExternalId and MessageData on Model
Date :6/10/2016 7:10:47 PM

-----------------------------------------------------------------------------

Method Name :PostToEMRPortalQueue
Message :Saving into Medflow.POrtalQueueXML table
Date :6/10/2016 7:10:48 PM

-----------------------------------------------------------------------------

Method Name :SavePortalQueueXml
Message :Inserting into Medflow.PortalQueueXML from the received XML
Date :6/10/2016 7:10:48 PM

-----------------------------------------------------------------------------

Method Name :SavePortalQueueXml
Message :Inserting into Medflow.PortalQueueXML Completed
Date :6/10/2016 7:10:49 PM

-----------------------------------------------------------------------------

Method Name :SaveSecureMessageFromPortal
Message :This Method will parse the XML and insert the Records into PatientPortalInbox and PatientPortalInboxHistory
Date :6/10/2016 7:10:54 PM

-----------------------------------------------------------------------------

Method Name :SaveSecureMessageFromPortal
Message :Parsing the Patient Message XML Starts Here!
Date :6/10/2016 7:10:59 PM

-----------------------------------------------------------------------------

Method Name :SaveSecureMessageFromPortal
Message :Patient Message XML parsing is Complete
Date :6/10/2016 7:11:02 PM

-----------------------------------------------------------------------------

Method Name :SaveSecureMessageFromPortal
Message :Inserting  into Medflow.PatientPortalInbox Table
Date :6/10/2016 7:11:10 PM

-----------------------------------------------------------------------------

Method Name :SaveSecureMessageFromPortal
Message :Inserting  into Medflow.PatientPortalInbox Table completed
Date :6/10/2016 7:11:14 PM

-----------------------------------------------------------------------------

Method Name :SendReplytoPatient
Message :Inserting Records into Medflow.PatientPortalInboxHistory Table
Date :6/13/2016 6:15:39 PM

-----------------------------------------------------------------------------

Method Name :SendReplytoPatient
Message :Inserting into Medflow.PatientPortalInboxHistory Completed
Date :6/13/2016 6:15:46 PM

-----------------------------------------------------------------------------

Method Name :SendReplytoPatient
Message :Inserting Records into Medflow.PatientPortalInboxHistory Table
Date :6/13/2016 6:38:41 PM

-----------------------------------------------------------------------------

Method Name :SendReplytoPatient
Message :Inserting into Medflow.PatientPortalInboxHistory Completed
Date :6/13/2016 6:39:40 PM

-----------------------------------------------------------------------------

Method Name :SendReplytoPatient
Message :Creating Parameters for accessing the Medflow Url and sending the parameters to Medflow Patient Portal
Date :6/13/2016 6:39:47 PM

-----------------------------------------------------------------------------

Method Name :SendReplytoPatient
Message :Inserting Records into Medflow.PatientPortalInboxHistory Table
Date :6/13/2016 6:44:51 PM

-----------------------------------------------------------------------------

Method Name :SendReplytoPatient
Message :Inserting Records into Medflow.PatientPortalInboxHistory Table
Date :6/13/2016 6:47:36 PM

-----------------------------------------------------------------------------

Method Name :SendReplytoPatient
Message :Inserting into Medflow.PatientPortalInboxHistory Completed
Date :6/13/2016 6:47:45 PM

-----------------------------------------------------------------------------

Method Name :SendReplytoPatient
Message :Inserting Records into Medflow.PatientPortalInboxHistory Table
Date :6/13/2016 6:54:30 PM

-----------------------------------------------------------------------------

Method Name :SendReplytoPatient
Message :Inserting into Medflow.PatientPortalInboxHistory Completed
Date :6/13/2016 6:54:36 PM

-----------------------------------------------------------------------------

Method Name :SendReplytoPatient
Message :Creating Parameters for accessing the Medflow Url and sending the parameters to Medflow Patient Portal
Date :6/13/2016 6:54:45 PM

-----------------------------------------------------------------------------

Method Name :SendReplytoPatient
Message :Failed! Inserting into Medflow.PortalQueueXML Table Failed
Date :6/13/2016 6:55:09 PM

-----------------------------------------------------------------------------

Method Name :SendReplytoPatient
Message :Inserting Records into Medflow.PatientPortalInboxHistory Table
Date :6/13/2016 6:56:06 PM

-----------------------------------------------------------------------------

Method Name :SendReplytoPatient
Message :Inserting into Medflow.PatientPortalInboxHistory Completed
Date :6/13/2016 6:56:10 PM

-----------------------------------------------------------------------------

Method Name :SendReplytoPatient
Message :Creating Parameters for accessing the Medflow Url and sending the parameters to Medflow Patient Portal
Date :6/13/2016 6:56:13 PM

-----------------------------------------------------------------------------

Method Name :SendReplytoPatient
Message :Failed! Inserting into Medflow.PortalQueueXML Table Failed
Date :6/13/2016 7:02:02 PM

-----------------------------------------------------------------------------

Method Name :SendReplytoPatient
Message :Inserting Records into Medflow.PatientPortalInboxHistory Table
Date :6/13/2016 7:51:03 PM

-----------------------------------------------------------------------------

Method Name :SendReplytoPatient
Message :Inserting  into Medflow.PatientPortalInboxHistory Table 
Date :6/13/2016 7:51:11 PM

-----------------------------------------------------------------------------

Method Name :SendReplytoPatient
Message :Insertion complete and EMRMessageId is returned
Date :6/13/2016 7:52:05 PM

-----------------------------------------------------------------------------

Method Name :SendReplytoPatient
Message :Inserting into Medflow.PatientPortalInboxHistory Completed
Date :6/13/2016 7:52:06 PM

-----------------------------------------------------------------------------

Method Name :SendReplytoPatient
Message :Inserting  into Medflow.PortalQueueXML Table
Date :6/13/2016 7:56:17 PM

-----------------------------------------------------------------------------

Method Name :SendReplytoPatient
Message :Inserting Records into Medflow.PatientPortalInboxHistory Table
Date :6/13/2016 7:58:56 PM

-----------------------------------------------------------------------------

Method Name :SendReplytoPatient
Message :Inserting  into Medflow.PatientPortalInboxHistory Table 
Date :6/13/2016 7:58:57 PM

-----------------------------------------------------------------------------

Method Name :SendReplytoPatient
Message :Insertion complete and EMRMessageId is returned
Date :6/13/2016 7:59:01 PM

-----------------------------------------------------------------------------

Method Name :SendReplytoPatient
Message :Inserting into Medflow.PatientPortalInboxHistory Completed
Date :6/13/2016 7:59:03 PM

-----------------------------------------------------------------------------

Method Name :SendReplytoPatient
Message :Creating Parameters for accessing the Medflow Url and sending the parameters to Medflow Patient Portal
Date :6/13/2016 7:59:21 PM

-----------------------------------------------------------------------------

Method Name :SendReplytoPatient
Message :Inserting Records into Medflow.PatientPortalInboxHistory Table
Date :6/13/2016 8:02:27 PM

-----------------------------------------------------------------------------

Method Name :SendReplytoPatient
Message :Inserting  into Medflow.PatientPortalInboxHistory Table 
Date :6/13/2016 8:02:28 PM

-----------------------------------------------------------------------------

Method Name :SendReplytoPatient
Message :Insertion complete and EMRMessageId is returned
Date :6/13/2016 8:02:34 PM

-----------------------------------------------------------------------------

Method Name :SendReplytoPatient
Message :Inserting into Medflow.PatientPortalInboxHistory Completed
Date :6/13/2016 8:02:35 PM

-----------------------------------------------------------------------------

Method Name :SendReplytoPatient
Message :Creating Parameters for accessing the Medflow Url and sending the parameters to Medflow Patient Portal
Date :6/13/2016 8:02:49 PM

-----------------------------------------------------------------------------

Method Name :SendReplytoPatient
Message :Inserting Records into Medflow.PatientPortalInboxHistory Table
Date :6/13/2016 8:06:32 PM

-----------------------------------------------------------------------------

Method Name :SendReplytoPatient
Message :Inserting  into Medflow.PatientPortalInboxHistory Table 
Date :6/13/2016 8:06:33 PM

-----------------------------------------------------------------------------

Method Name :SendReplytoPatient
Message :Insertion complete and EMRMessageId is returned
Date :6/13/2016 8:06:35 PM

-----------------------------------------------------------------------------

Method Name :SendReplytoPatient
Message :Inserting into Medflow.PatientPortalInboxHistory Completed
Date :6/13/2016 8:06:39 PM

-----------------------------------------------------------------------------

Method Name :SendReplytoPatient
Message :Creating Parameters for accessing the Medflow Url and sending the parameters to Medflow Patient Portal
Date :6/13/2016 8:06:44 PM

-----------------------------------------------------------------------------

Method Name :SendReplytoPatient
Message :Inserting Records into Medflow.PatientPortalInboxHistory Table
Date :6/13/2016 8:52:33 PM

-----------------------------------------------------------------------------

Method Name :SendReplytoPatient
Message :Inserting  into Medflow.PatientPortalInboxHistory Table 
Date :6/13/2016 8:52:35 PM

-----------------------------------------------------------------------------

Method Name :SendReplytoPatient
Message :Insertion complete and EMRMessageId is returned
Date :6/13/2016 8:52:41 PM

-----------------------------------------------------------------------------

Method Name :SendReplytoPatient
Message :Inserting into Medflow.PatientPortalInboxHistory Completed
Date :6/13/2016 8:52:44 PM

-----------------------------------------------------------------------------

Method Name :SendReplytoPatient
Message :Inserting Records into Medflow.PatientPortalInboxHistory Table
Date :6/13/2016 8:56:28 PM

-----------------------------------------------------------------------------

Method Name :SendReplytoPatient
Message :Inserting  into Medflow.PatientPortalInboxHistory Table 
Date :6/13/2016 8:56:30 PM

-----------------------------------------------------------------------------

Method Name :SendReplytoPatient
Message :Insertion complete and EMRMessageId is returned
Date :6/13/2016 8:56:36 PM

-----------------------------------------------------------------------------

Method Name :SendReplytoPatient
Message :Inserting into Medflow.PatientPortalInboxHistory Completed
Date :6/13/2016 8:56:36 PM

-----------------------------------------------------------------------------

Method Name :SendReplytoPatient
Message :Inserting  into Medflow.PortalQueueXML Table
Date :6/13/2016 8:56:45 PM

-----------------------------------------------------------------------------

Method Name :SendReplytoPatient
Message :Inserting Records into Medflow.PatientPortalInboxHistory Table
Date :6/13/2016 8:59:34 PM

-----------------------------------------------------------------------------

Method Name :SendReplytoPatient
Message :Inserting  into Medflow.PatientPortalInboxHistory Table 
Date :6/13/2016 8:59:35 PM

-----------------------------------------------------------------------------

Method Name :SendReplytoPatient
Message :Insertion complete and EMRMessageId is returned
Date :6/13/2016 8:59:36 PM

-----------------------------------------------------------------------------

Method Name :SendReplytoPatient
Message :Inserting into Medflow.PatientPortalInboxHistory Completed
Date :6/13/2016 8:59:37 PM

-----------------------------------------------------------------------------

Method Name :SendReplytoPatient
Message :Inserting  into Medflow.PortalQueueXML Table
Date :6/13/2016 8:59:41 PM

-----------------------------------------------------------------------------

Method Name :SendReplytoPatient
Message :Inserting Records into Medflow.PatientPortalInboxHistory Table
Date :6/13/2016 9:04:33 PM

-----------------------------------------------------------------------------

Method Name :SendReplytoPatient
Message :Inserting  into Medflow.PatientPortalInboxHistory Table 
Date :6/13/2016 9:04:34 PM

-----------------------------------------------------------------------------

Method Name :SendReplytoPatient
Message :Insertion complete and EMRMessageId is returned
Date :6/13/2016 9:04:36 PM

-----------------------------------------------------------------------------

Method Name :SendReplytoPatient
Message :Inserting into Medflow.PatientPortalInboxHistory Completed
Date :6/13/2016 9:04:37 PM

-----------------------------------------------------------------------------

Method Name :SendReplytoPatient
Message :Inserting  into Medflow.PortalQueueXML Table
Date :6/13/2016 9:04:41 PM

-----------------------------------------------------------------------------

Method Name :SendReplytoPatient
Message :Inserting Records into Medflow.PatientPortalInboxHistory Table
Date :6/13/2016 9:07:27 PM

-----------------------------------------------------------------------------

Method Name :SendReplytoPatient
Message :Inserting  into Medflow.PatientPortalInboxHistory Table 
Date :6/13/2016 9:07:28 PM

-----------------------------------------------------------------------------

Method Name :SendReplytoPatient
Message :Insertion complete and EMRMessageId is returned
Date :6/13/2016 9:07:29 PM

-----------------------------------------------------------------------------

Method Name :SendReplytoPatient
Message :Inserting into Medflow.PatientPortalInboxHistory Completed
Date :6/13/2016 9:07:30 PM

-----------------------------------------------------------------------------

Method Name :SendReplytoPatient
Message :Inserting  into Medflow.PortalQueueXML Table
Date :6/13/2016 9:07:33 PM

-----------------------------------------------------------------------------

Method Name :SendReplytoPatient
Message :Insertion into Medflow.PortalQueueXML Table
Date :6/13/2016 9:07:36 PM

-----------------------------------------------------------------------------

Method Name :SendReplytoPatient
Message :Creating Parameters for accessing the Medflow Url and sending the parameters to Medflow Patient Portal
Date :6/13/2016 9:07:37 PM

-----------------------------------------------------------------------------

Method Name :SendReplytoPatient
Message :Failed! Inserting into Medflow.PortalQueueXML Table Failed
Date :6/13/2016 9:07:44 PM

-----------------------------------------------------------------------------

Method Name :SendReplytoPatient
Message :Inserting Records into Medflow.PatientPortalInboxHistory Table
Date :6/13/2016 9:27:33 PM

-----------------------------------------------------------------------------

Method Name :SendReplytoPatient
Message :Inserting  into Medflow.PatientPortalInboxHistory Table 
Date :6/13/2016 9:27:34 PM

-----------------------------------------------------------------------------

Method Name :SendReplytoPatient
Message :Insertion complete and EMRMessageId is returned
Date :6/13/2016 9:27:35 PM

-----------------------------------------------------------------------------

Method Name :SendReplytoPatient
Message :Inserting into Medflow.PatientPortalInboxHistory Completed
Date :6/13/2016 9:27:35 PM

-----------------------------------------------------------------------------

Method Name :SendReplytoPatient
Message :Inserting  into Medflow.PortalQueueXML Table
Date :6/13/2016 9:27:38 PM

-----------------------------------------------------------------------------

Method Name :SendReplytoPatient
Message :Insertion into Medflow.PortalQueueXML Table
Date :6/13/2016 9:27:39 PM

-----------------------------------------------------------------------------

Method Name :SendReplytoPatient
Message :Creating Parameters for accessing the Medflow Url and sending the parameters to Medflow Patient Portal
Date :6/13/2016 9:27:42 PM

-----------------------------------------------------------------------------

Method Name :SendReplytoPatient
Message :Failed! Inserting into Medflow.PortalQueueXML Table Failed
Date :6/13/2016 9:27:56 PM

-----------------------------------------------------------------------------

Method Name :SendReplytoPatient
Message :Inserting Records into Medflow.PatientPortalInboxHistory Table
Date :6/13/2016 9:39:31 PM

-----------------------------------------------------------------------------

Method Name :SendReplytoPatient
Message :Inserting  into Medflow.PatientPortalInboxHistory Table 
Date :6/13/2016 9:39:31 PM

-----------------------------------------------------------------------------

Method Name :SendReplytoPatient
Message :Insertion complete and EMRMessageId is returned
Date :6/13/2016 9:39:33 PM

-----------------------------------------------------------------------------

Method Name :SendReplytoPatient
Message :Inserting into Medflow.PatientPortalInboxHistory Completed
Date :6/13/2016 9:39:33 PM

-----------------------------------------------------------------------------

Method Name :SendReplytoPatient
Message :Inserting  into Medflow.PortalQueueXML Table
Date :6/13/2016 9:39:33 PM

-----------------------------------------------------------------------------

Method Name :SendReplytoPatient
Message :Insertion into Medflow.PortalQueueXML Table
Date :6/13/2016 9:39:33 PM

-----------------------------------------------------------------------------

Method Name :SendReplytoPatient
Message :Creating Parameters for accessing the Medflow Url and sending the parameters to Medflow Patient Portal
Date :6/13/2016 9:39:33 PM

-----------------------------------------------------------------------------

Method Name :SendReplytoPatient
Message :Failed! Inserting into Medflow.PortalQueueXML Table Failed
Date :6/13/2016 9:39:34 PM

-----------------------------------------------------------------------------

Method Name :SendReplytoPatient
Message :Inserting Records into Medflow.PatientPortalInboxHistory Table
Date :6/13/2016 9:50:40 PM

-----------------------------------------------------------------------------

Method Name :SendReplytoPatient
Message :Inserting  into Medflow.PatientPortalInboxHistory Table 
Date :6/13/2016 9:50:41 PM

-----------------------------------------------------------------------------

Method Name :SendReplytoPatient
Message :Insertion complete and EMRMessageId is returned
Date :6/13/2016 9:50:43 PM

-----------------------------------------------------------------------------

Method Name :SendReplytoPatient
Message :Inserting into Medflow.PatientPortalInboxHistory Completed
Date :6/13/2016 9:50:44 PM

-----------------------------------------------------------------------------

Method Name :SendReplytoPatient
Message :Inserting  into Medflow.PortalQueueXML Table
Date :6/13/2016 9:50:47 PM

-----------------------------------------------------------------------------

Method Name :SendReplytoPatient
Message :Insertion into Medflow.PortalQueueXML Table
Date :6/13/2016 9:50:49 PM

-----------------------------------------------------------------------------

Method Name :SendReplytoPatient
Message :Creating Parameters for accessing the Medflow Url and sending the parameters to Medflow Patient Portal
Date :6/13/2016 9:50:50 PM

-----------------------------------------------------------------------------

Method Name :SendReplytoPatient
Message :Failed! Inserting into Medflow.PortalQueueXML Table Failed
Date :6/13/2016 9:50:59 PM

-----------------------------------------------------------------------------

Method Name :SendReplytoPatient
Message :Inserting Records into Medflow.PatientPortalInboxHistory Table
Date :6/13/2016 9:53:54 PM

-----------------------------------------------------------------------------

Method Name :SendReplytoPatient
Message :Inserting  into Medflow.PatientPortalInboxHistory Table 
Date :6/13/2016 9:53:55 PM

-----------------------------------------------------------------------------

Method Name :SendReplytoPatient
Message :Insertion complete and EMRMessageId is returned
Date :6/13/2016 9:53:57 PM

-----------------------------------------------------------------------------

Method Name :SendReplytoPatient
Message :Inserting into Medflow.PatientPortalInboxHistory Completed
Date :6/13/2016 9:53:57 PM

-----------------------------------------------------------------------------

Method Name :SendReplytoPatient
Message :Inserting  into Medflow.PortalQueueXML Table
Date :6/13/2016 9:54:01 PM

-----------------------------------------------------------------------------

Method Name :SendReplytoPatient
Message :Insertion into Medflow.PortalQueueXML Table
Date :6/13/2016 9:54:02 PM

-----------------------------------------------------------------------------

Method Name :SendReplytoPatient
Message :Creating Parameters for accessing the Medflow Url and sending the parameters to Medflow Patient Portal
Date :6/13/2016 9:54:02 PM

-----------------------------------------------------------------------------

Method Name :SendReplytoPatient
Message :Failed! Inserting into Medflow.PortalQueueXML Table Failed
Date :6/13/2016 9:54:08 PM

-----------------------------------------------------------------------------

Method Name :SendReplytoPatient
Message :Inserting Records into Medflow.PatientPortalInboxHistory Table
Date :6/14/2016 12:41:19 AM

-----------------------------------------------------------------------------

Method Name :SendReplytoPatient
Message :Inserting  into Medflow.PatientPortalInboxHistory Table 
Date :6/14/2016 12:41:23 AM

-----------------------------------------------------------------------------

Method Name :SendReplytoPatient
Message :Insertion complete and EMRMessageId is returned
Date :6/14/2016 12:41:30 AM

-----------------------------------------------------------------------------

Method Name :SendReplytoPatient
Message :Inserting into Medflow.PatientPortalInboxHistory Completed
Date :6/14/2016 12:41:31 AM

-----------------------------------------------------------------------------

Method Name :SendReplytoPatient
Message :Inserting  into Medflow.PortalQueueXML Table
Date :6/14/2016 12:41:42 AM

-----------------------------------------------------------------------------

Method Name :SendReplytoPatient
Message :Insertion into Medflow.PortalQueueXML Table completed
Date :6/14/2016 12:41:46 AM

-----------------------------------------------------------------------------

Method Name :SendReplytoPatient
Message :Creating Parameters for accessing the Medflow Url and sending the parameters to Medflow Patient Portal
Date :6/14/2016 12:41:49 AM

-----------------------------------------------------------------------------

Method Name :SendReplytoPatient
Message :Parameters has been Created and now accessing Medflow's shared Api
Date :6/14/2016 12:41:54 AM

-----------------------------------------------------------------------------

Method Name :SendReplytoPatient
Message :Posting Created Parameters to the Medflow API
Date :6/14/2016 12:42:16 AM

-----------------------------------------------------------------------------

Method Name :SendReplytoPatient
Message :Data has been uploaded on the Medflow Patient portal Database
Date :6/14/2016 12:42:38 AM

-----------------------------------------------------------------------------

Method Name :SendReplytoPatient
Message :Success! Inserting into Medflow.PortalQueueXML Table
Date :6/14/2016 12:42:42 AM

-----------------------------------------------------------------------------

Method Name :SendReplytoPatient
Message :Inserting Records into Medflow.PatientPortalInboxHistory Table
Date :6/14/2016 6:21:30 PM

-----------------------------------------------------------------------------

Method Name :SendReplytoPatient
Message :Inserting  into Medflow.PatientPortalInboxHistory Table 
Date :6/14/2016 6:21:32 PM

-----------------------------------------------------------------------------

Method Name :SendReplytoPatient
Message :Insertion complete and EMRMessageId is returned
Date :6/14/2016 6:21:38 PM

-----------------------------------------------------------------------------

Method Name :SendReplytoPatient
Message :Inserting into Medflow.PatientPortalInboxHistory Completed
Date :6/14/2016 6:21:39 PM

-----------------------------------------------------------------------------

Method Name :SendReplytoPatient
Message :Inserting Records into Medflow.PatientPortalInboxHistory Table
Date :6/14/2016 6:22:56 PM

-----------------------------------------------------------------------------

Method Name :SendReplytoPatient
Message :Inserting  into Medflow.PatientPortalInboxHistory Table 
Date :6/14/2016 6:22:58 PM

-----------------------------------------------------------------------------

Method Name :SendReplytoPatient
Message :Insertion complete and EMRMessageId is returned
Date :6/14/2016 6:23:02 PM

-----------------------------------------------------------------------------

Method Name :SendReplytoPatient
Message :Inserting into Medflow.PatientPortalInboxHistory Completed
Date :6/14/2016 6:23:02 PM

-----------------------------------------------------------------------------

Method Name :SendReplytoPatient
Message :Inserting Records into Medflow.PatientPortalInboxHistory Table
Date :6/14/2016 6:24:44 PM

-----------------------------------------------------------------------------

Method Name :SendReplytoPatient
Message :Inserting  into Medflow.PatientPortalInboxHistory Table 
Date :6/14/2016 6:24:45 PM

-----------------------------------------------------------------------------

Method Name :SendReplytoPatient
Message :Insertion complete and EMRMessageId is returned
Date :6/14/2016 6:24:46 PM

-----------------------------------------------------------------------------

Method Name :SendReplytoPatient
Message :Inserting into Medflow.PatientPortalInboxHistory Completed
Date :6/14/2016 6:24:47 PM

-----------------------------------------------------------------------------

Method Name :SendReplytoPatient
Message :Inserting  into Medflow.PortalQueueXML Table
Date :6/14/2016 6:25:14 PM

-----------------------------------------------------------------------------

Method Name :SendReplytoPatient
Message :Insertion into Medflow.PortalQueueXML Table completed
Date :6/14/2016 6:25:16 PM

-----------------------------------------------------------------------------

Method Name :SendReplytoPatient
Message :Creating Parameters for accessing the Medflow Url and sending the parameters to Medflow Patient Portal
Date :6/14/2016 6:25:18 PM

-----------------------------------------------------------------------------

Method Name :SendReplytoPatient
Message :Inserting Records into Medflow.PatientPortalInboxHistory Table
Date :6/15/2016 8:03:04 PM

-----------------------------------------------------------------------------

Method Name :SendReplytoPatient
Message :Inserting  into Medflow.PatientPortalInboxHistory Table 
Date :6/15/2016 8:03:05 PM

-----------------------------------------------------------------------------

Method Name :SendReplytoPatient
Message :Insertion complete and EMRMessageId is returned
Date :6/15/2016 8:03:17 PM

-----------------------------------------------------------------------------

Method Name :SendReplytoPatient
Message :Inserting into Medflow.PatientPortalInboxHistory Completed
Date :6/15/2016 8:03:18 PM

-----------------------------------------------------------------------------

Method Name :SendReplytoPatient
Message :Inserting  into Medflow.PortalQueueXML Table
Date :6/15/2016 8:03:42 PM

-----------------------------------------------------------------------------

Method Name :SendReplytoPatient
Message :Insertion into Medflow.PortalQueueXML Table completed
Date :6/15/2016 8:03:50 PM

-----------------------------------------------------------------------------

Method Name :SendReplytoPatient
Message :Creating Parameters for accessing the Medflow Url and sending the parameters to Medflow Patient Portal
Date :6/15/2016 8:03:52 PM

-----------------------------------------------------------------------------

Method Name :SendReplytoPatient
Message :Parameters has been Created and now accessing Medflow's shared Api
Date :6/15/2016 8:04:00 PM

-----------------------------------------------------------------------------

Method Name :SendReplytoPatient
Message :Posting Created Parameters to the Medflow API
Date :6/15/2016 8:19:18 PM

-----------------------------------------------------------------------------

Method Name :SendReplytoPatient
Message :Inserting Records into Medflow.PatientPortalInboxHistory Table
Date :6/15/2016 11:20:30 PM

-----------------------------------------------------------------------------

Method Name :SendReplytoPatient
Message :Inserting  into Medflow.PatientPortalInboxHistory Table 
Date :6/15/2016 11:20:31 PM

-----------------------------------------------------------------------------

Method Name :SendReplytoPatient
Message :Insertion complete and EMRMessageId is returned
Date :6/15/2016 11:22:25 PM

-----------------------------------------------------------------------------

Method Name :SendReplytoPatient
Message :Inserting into Medflow.PatientPortalInboxHistory Completed
Date :6/15/2016 11:22:25 PM

-----------------------------------------------------------------------------

Method Name :SendReplytoPatient
Message :Inserting  into Medflow.PortalQueueXML Table
Date :6/15/2016 11:22:32 PM

-----------------------------------------------------------------------------

Method Name :SendReplytoPatient
Message :Insertion into Medflow.PortalQueueXML Table completed
Date :6/15/2016 11:22:33 PM

-----------------------------------------------------------------------------

Method Name :SendReplytoPatient
Message :Creating Parameters for accessing the Medflow Url and sending the parameters to Medflow Patient Portal
Date :6/15/2016 11:22:37 PM

-----------------------------------------------------------------------------

Method Name :SendReplytoPatient
Message :Parameters has been Created and now accessing Medflow's shared Api
Date :6/15/2016 11:22:41 PM

-----------------------------------------------------------------------------

Method Name :SendReplytoPatient
Message :Posting Created Parameters to the Medflow API
Date :6/15/2016 11:22:50 PM

-----------------------------------------------------------------------------

Method Name :SendReplytoPatient
Message :Data has been uploaded on the Medflow Patient portal Database
Date :6/15/2016 11:22:59 PM

-----------------------------------------------------------------------------

Method Name :SendReplytoPatient
Message :Failed! Inserting into Medflow.PortalQueueXMLException Table
Date :6/15/2016 11:23:01 PM

-----------------------------------------------------------------------------

Method Name :SendReplytoPatient
Message :Inserting Records into Medflow.PatientPortalInboxHistory Table
Date :6/15/2016 11:48:13 PM

-----------------------------------------------------------------------------

Method Name :SendReplytoPatient
Message :Inserting  into Medflow.PatientPortalInboxHistory Table 
Date :6/15/2016 11:48:13 PM

-----------------------------------------------------------------------------

Method Name :SendReplytoPatient
Message :Insertion complete and EMRMessageId is returned
Date :6/15/2016 11:48:13 PM

-----------------------------------------------------------------------------

Method Name :SendReplytoPatient
Message :Inserting into Medflow.PatientPortalInboxHistory Completed
Date :6/15/2016 11:48:13 PM

-----------------------------------------------------------------------------

Method Name :SendReplytoPatient
Message :Inserting  into Medflow.PortalQueueXML Table
Date :6/15/2016 11:48:13 PM

-----------------------------------------------------------------------------

Method Name :SendReplytoPatient
Message :Insertion into Medflow.PortalQueueXML Table completed
Date :6/15/2016 11:48:13 PM

-----------------------------------------------------------------------------

Method Name :SendReplytoPatient
Message :Creating Parameters for accessing the Medflow Url and sending the parameters to Medflow Patient Portal
Date :6/15/2016 11:48:13 PM

-----------------------------------------------------------------------------

Method Name :SendReplytoPatient
Message :Parameters has been Created and now accessing Medflow's shared Api
Date :6/15/2016 11:48:13 PM

-----------------------------------------------------------------------------

Method Name :SendReplytoPatient
Message :Posting Created Parameters to the Medflow API
Date :6/15/2016 11:48:13 PM

-----------------------------------------------------------------------------

Method Name :SendReplytoPatient
Message :Data has been uploaded on the Medflow Patient portal Database
Date :6/15/2016 11:48:14 PM

-----------------------------------------------------------------------------

Method Name :SendReplytoPatient
Message :Failed! Inserting into Medflow.PortalQueueXMLException Table
Date :6/15/2016 11:48:14 PM

-----------------------------------------------------------------------------

Method Name :SendReplytoPatient
Message :Inserting Records into Medflow.PatientPortalInboxHistory Table
Date :6/15/2016 11:50:19 PM

-----------------------------------------------------------------------------

Method Name :SendReplytoPatient
Message :Inserting  into Medflow.PatientPortalInboxHistory Table 
Date :6/15/2016 11:50:19 PM

-----------------------------------------------------------------------------

Method Name :SendReplytoPatient
Message :Insertion complete and EMRMessageId is returned
Date :6/15/2016 11:50:20 PM

-----------------------------------------------------------------------------

Method Name :SendReplytoPatient
Message :Inserting into Medflow.PatientPortalInboxHistory Completed
Date :6/15/2016 11:50:20 PM

-----------------------------------------------------------------------------

Method Name :SendReplytoPatient
Message :Inserting  into Medflow.PortalQueueXML Table
Date :6/15/2016 11:50:20 PM

-----------------------------------------------------------------------------

Method Name :SendReplytoPatient
Message :Insertion into Medflow.PortalQueueXML Table completed
Date :6/15/2016 11:50:20 PM

-----------------------------------------------------------------------------

Method Name :SendReplytoPatient
Message :Creating Parameters for accessing the Medflow Url and sending the parameters to Medflow Patient Portal
Date :6/15/2016 11:50:20 PM

-----------------------------------------------------------------------------

Method Name :SendReplytoPatient
Message :Parameters has been Created and now accessing Medflow's shared Api
Date :6/15/2016 11:50:20 PM

-----------------------------------------------------------------------------

Method Name :SendReplytoPatient
Message :Posting Created Parameters to the Medflow API
Date :6/15/2016 11:50:20 PM

-----------------------------------------------------------------------------

Method Name :SendReplytoPatient
Message :Data has been uploaded on the Medflow Patient portal Database
Date :6/15/2016 11:50:21 PM

-----------------------------------------------------------------------------

Method Name :SendReplytoPatient
Message :Failed! Inserting into Medflow.PortalQueueXMLException Table
Date :6/15/2016 11:50:21 PM

-----------------------------------------------------------------------------

Method Name :SendReplytoPatient
Message :Inserting Records into Medflow.PatientPortalInboxHistory Table
Date :6/16/2016 8:21:12 PM

-----------------------------------------------------------------------------

Method Name :SendReplytoPatient
Message :Inserting  into Medflow.PatientPortalInboxHistory Table 
Date :6/16/2016 8:21:14 PM

-----------------------------------------------------------------------------

Method Name :SendReplytoPatient
Message :Insertion complete and EMRMessageId is returned
Date :6/16/2016 8:21:17 PM

-----------------------------------------------------------------------------

Method Name :SendReplytoPatient
Message :Inserting into Medflow.PatientPortalInboxHistory Completed
Date :6/16/2016 8:21:18 PM

-----------------------------------------------------------------------------

Method Name :SendReplytoPatient
Message :Inserting  into Medflow.PortalQueueXML Table
Date :6/16/2016 8:21:23 PM

-----------------------------------------------------------------------------

Method Name :SendReplytoPatient
Message :Insertion into Medflow.PortalQueueXML Table completed
Date :6/16/2016 8:21:25 PM

-----------------------------------------------------------------------------

Method Name :SendReplytoPatient
Message :Creating Parameters for accessing the Medflow Url and sending the parameters to Medflow Patient Portal
Date :6/16/2016 8:21:26 PM

-----------------------------------------------------------------------------

Method Name :SendReplytoPatient
Message :Parameters has been Created and now accessing Medflow's shared Api
Date :6/16/2016 8:21:30 PM

-----------------------------------------------------------------------------

Method Name :SendReplytoPatient
Message :Posting Created Parameters to the Medflow API
Date :6/16/2016 8:21:35 PM

-----------------------------------------------------------------------------

Method Name :SendReplytoPatient
Message :Data has been uploaded on the Medflow Patient portal Database
Date :6/16/2016 8:21:48 PM

-----------------------------------------------------------------------------

Method Name :SendReplytoPatient
Message :Failed! Inserting into Medflow.PortalQueueXMLException Table
Date :6/16/2016 8:21:49 PM

-----------------------------------------------------------------------------

Method Name :SendReplytoPatient
Message :Inserting Records into Medflow.PatientPortalInboxHistory Table
Date :10/20/16 7:13:20 PM

-----------------------------------------------------------------------------

Method Name :SendReplytoPatient
Message :Inserting  into Medflow.PatientPortalInboxHistory Table 
Date :10/20/16 7:13:20 PM

-----------------------------------------------------------------------------

Method Name :SendReplytoPatient
Message :Insertion complete and EMRMessageId is returned
Date :10/20/16 7:13:20 PM

-----------------------------------------------------------------------------

Method Name :SendReplytoPatient
Message :Inserting into Medflow.PatientPortalInboxHistory Completed
Date :10/20/16 7:13:20 PM

-----------------------------------------------------------------------------

Method Name :SendReplytoPatient
Message :Inserting Records into Medflow.PatientPortalInboxHistory Table
Date :10/20/16 7:31:08 PM

-----------------------------------------------------------------------------

Method Name :SendReplytoPatient
Message :Inserting  into Medflow.PatientPortalInboxHistory Table 
Date :10/20/16 7:31:08 PM

-----------------------------------------------------------------------------

Method Name :SendReplytoPatient
Message :Inserting Records into Medflow.PatientPortalInboxHistory Table
Date :10/20/16 7:31:12 PM

-----------------------------------------------------------------------------

Method Name :SendReplytoPatient
Message :Inserting  into Medflow.PatientPortalInboxHistory Table 
Date :10/20/16 7:31:12 PM

-----------------------------------------------------------------------------

Method Name :SendReplytoPatient
Message :Insertion complete and EMRMessageId is returned
Date :10/20/16 7:31:13 PM

-----------------------------------------------------------------------------

Method Name :SendReplytoPatient
Message :Inserting into Medflow.PatientPortalInboxHistory Completed
Date :10/20/16 7:31:13 PM

-----------------------------------------------------------------------------

Method Name :SendReplytoPatient
Message :Insertion complete and EMRMessageId is returned
Date :10/20/16 7:31:14 PM

-----------------------------------------------------------------------------

Method Name :SendReplytoPatient
Message :Inserting into Medflow.PatientPortalInboxHistory Completed
Date :10/20/16 7:31:14 PM

-----------------------------------------------------------------------------

Method Name :SendReplytoPatient
Message :Inserting Records into Medflow.PatientPortalInboxHistory Table
Date :10/20/16 7:49:54 PM

-----------------------------------------------------------------------------

Method Name :SendReplytoPatient
Message :Inserting  into Medflow.PatientPortalInboxHistory Table 
Date :10/20/16 7:50:03 PM

-----------------------------------------------------------------------------

Method Name :SendReplytoPatient
Message :Insertion complete and EMRMessageId is returned
Date :10/20/16 7:50:19 PM

-----------------------------------------------------------------------------

Method Name :SendReplytoPatient
Message :Inserting into Medflow.PatientPortalInboxHistory Completed
Date :10/20/16 7:50:20 PM

-----------------------------------------------------------------------------

Method Name :SendReplytoPatient
Message :Inserting Records into Medflow.PatientPortalInboxHistory Table
Date :10/20/16 7:52:40 PM

-----------------------------------------------------------------------------

Method Name :SendReplytoPatient
Message :Inserting  into Medflow.PatientPortalInboxHistory Table 
Date :10/20/16 7:52:40 PM

-----------------------------------------------------------------------------

Method Name :SendReplytoPatient
Message :Insertion complete and EMRMessageId is returned
Date :10/20/16 7:52:41 PM

-----------------------------------------------------------------------------

Method Name :SendReplytoPatient
Message :Inserting into Medflow.PatientPortalInboxHistory Completed
Date :10/20/16 7:52:41 PM

-----------------------------------------------------------------------------

Method Name :SendReplytoPatient
Message :Inserting Records into Medflow.PatientPortalInboxHistory Table
Date :10/20/16 7:57:53 PM

-----------------------------------------------------------------------------

Method Name :SendReplytoPatient
Message :Inserting  into Medflow.PatientPortalInboxHistory Table 
Date :10/20/16 7:57:53 PM

-----------------------------------------------------------------------------

Method Name :SendReplytoPatient
Message :Insertion complete and EMRMessageId is returned
Date :10/20/16 7:57:54 PM

-----------------------------------------------------------------------------

Method Name :SendReplytoPatient
Message :Inserting into Medflow.PatientPortalInboxHistory Completed
Date :10/20/16 7:57:54 PM

-----------------------------------------------------------------------------

Method Name :SendReplytoPatient
Message :Inserting Records into Medflow.PatientPortalInboxHistory Table
Date :10/20/16 7:58:11 PM

-----------------------------------------------------------------------------

Method Name :SendReplytoPatient
Message :Inserting  into Medflow.PatientPortalInboxHistory Table 
Date :10/20/16 7:58:11 PM

-----------------------------------------------------------------------------

Method Name :SendReplytoPatient
Message :Insertion complete and EMRMessageId is returned
Date :10/20/16 7:58:12 PM

-----------------------------------------------------------------------------

Method Name :SendReplytoPatient
Message :Inserting into Medflow.PatientPortalInboxHistory Completed
Date :10/20/16 7:58:12 PM

-----------------------------------------------------------------------------

Method Name :SendReplytoPatient
Message :Inserting Records into Medflow.PatientPortalInboxHistory Table
Date :10/20/16 7:58:18 PM

-----------------------------------------------------------------------------

Method Name :SendReplytoPatient
Message :Inserting  into Medflow.PatientPortalInboxHistory Table 
Date :10/20/16 7:58:18 PM

-----------------------------------------------------------------------------

Method Name :SendReplytoPatient
Message :Insertion complete and EMRMessageId is returned
Date :10/20/16 7:58:20 PM

-----------------------------------------------------------------------------

Method Name :SendReplytoPatient
Message :Inserting into Medflow.PatientPortalInboxHistory Completed
Date :10/20/16 7:58:21 PM

-----------------------------------------------------------------------------

Method Name :SendReplytoPatient
Message :Inserting Records into Medflow.PatientPortalInboxHistory Table
Date :10/20/16 7:58:39 PM

-----------------------------------------------------------------------------

Method Name :SendReplytoPatient
Message :Inserting  into Medflow.PatientPortalInboxHistory Table 
Date :10/20/16 7:58:39 PM

-----------------------------------------------------------------------------

Method Name :SendReplytoPatient
Message :Insertion complete and EMRMessageId is returned
Date :10/20/16 7:58:42 PM

-----------------------------------------------------------------------------

Method Name :SendReplytoPatient
Message :Inserting into Medflow.PatientPortalInboxHistory Completed
Date :10/20/16 7:58:42 PM

-----------------------------------------------------------------------------

Method Name :SendReplytoPatient
Message :Inserting Records into Medflow.PatientPortalInboxHistory Table
Date :10/20/16 8:00:45 PM

-----------------------------------------------------------------------------

Method Name :SendReplytoPatient
Message :Inserting  into Medflow.PatientPortalInboxHistory Table 
Date :10/20/16 8:00:45 PM

-----------------------------------------------------------------------------

Method Name :SendReplytoPatient
Message :Insertion complete and EMRMessageId is returned
Date :10/20/16 8:00:45 PM

-----------------------------------------------------------------------------

Method Name :SendReplytoPatient
Message :Inserting into Medflow.PatientPortalInboxHistory Completed
Date :10/20/16 8:00:45 PM

-----------------------------------------------------------------------------

Method Name :SendReplytoPatient
Message :Inserting Records into Medflow.PatientPortalInboxHistory Table
Date :10/20/16 8:02:57 PM

-----------------------------------------------------------------------------

Method Name :SendReplytoPatient
Message :Inserting  into Medflow.PatientPortalInboxHistory Table 
Date :10/20/16 8:02:57 PM

-----------------------------------------------------------------------------

Method Name :SendReplytoPatient
Message :Insertion complete and EMRMessageId is returned
Date :10/20/16 8:02:58 PM

-----------------------------------------------------------------------------

Method Name :SendReplytoPatient
Message :Inserting into Medflow.PatientPortalInboxHistory Completed
Date :10/20/16 8:02:58 PM

-----------------------------------------------------------------------------

Method Name :SendReplytoPatient
Message :Inserting  into Medflow.PortalQueueXML Table
Date :10/20/16 8:02:59 PM

-----------------------------------------------------------------------------

Method Name :SendReplytoPatient
Message :Insertion into Medflow.PortalQueueXML Table completed
Date :10/20/16 8:02:59 PM

-----------------------------------------------------------------------------

Method Name :SendReplytoPatient
Message :Creating Parameters for accessing the Medflow Url and sending the parameters to Medflow Patient Portal
Date :10/20/16 8:02:59 PM

-----------------------------------------------------------------------------

Method Name :SendReplytoPatient
Message :Parameters has been Created and now accessing Medflow's shared Api
Date :10/20/16 8:02:59 PM

-----------------------------------------------------------------------------

Method Name :SendReplytoPatient
Message :Posting Created Parameters to the Medflow API
Date :10/20/16 8:02:59 PM

-----------------------------------------------------------------------------

Method Name :SendReplytoPatient
Message :Data has been uploaded on the Medflow Patient portal Database
Date :10/20/16 8:03:04 PM

-----------------------------------------------------------------------------

Method Name :SendReplytoPatient
Message :Success! Inserting into Medflow.PortalQueueXMLResponse Table
Date :10/20/16 8:03:04 PM

-----------------------------------------------------------------------------

Method Name :SendReplytoPatient
Message :There's some issue with the function the Exception is -  The INSERT statement conflicted with the FOREIGN KEY constraint "PortalQueueXMLResponse_ActionTypeLookup_FK". The conflict occurred in database "PortalTesting", table "Medflow.PortalActionTypeLookup", column 'Id'.
The statement has been terminated.
Date :10/20/16 8:04:56 PM

-----------------------------------------------------------------------------

Method Name :SendAmendmentStatus
Message :Updating Status into Medflow.PatientAmendmentInfo Table
Date :11/18/16 3:58:48 PM

-----------------------------------------------------------------------------

Method Name :SendAmendmentStatus
Message :Updating Status into Medflow.PatientAmendmentInfo Table
Date :11/18/16 3:59:43 PM

-----------------------------------------------------------------------------

Method Name :SendAmendmentStatus
Message :Updating Status into Medflow.PatientAmendmentInfo Completed
Date :11/18/16 3:59:43 PM

-----------------------------------------------------------------------------

Method Name :SendAmendmentStatus
Message :Inserting  into Medflow.PortalQueueXML Table
Date :11/18/16 3:59:44 PM

-----------------------------------------------------------------------------

Method Name :SendAmendmentStatus
Message :Insertion into Medflow.PortalQueueXML Table completed
Date :11/18/16 3:59:44 PM

-----------------------------------------------------------------------------

Method Name :SendAmendmentStatus
Message :Creating Parameters for accessing the Medflow Url and sending the parameters to Medflow Patient Portal
Date :11/18/16 3:59:44 PM

-----------------------------------------------------------------------------

Method Name :SendReplytoPatient-PortalInboxId
Message :5
Date :11/23/16 7:38:10 PM

-----------------------------------------------------------------------------

Method Name :SendReplytoPatient
Message :Inserting Records into Medflow.PatientPortalInboxHistory Table
Date :11/23/16 7:38:12 PM

-----------------------------------------------------------------------------

Method Name :SendReplytoPatient
Message :Inserting  into Medflow.PatientPortalInboxHistory Table 
Date :11/23/16 7:38:13 PM

-----------------------------------------------------------------------------

Method Name :SendReplytoPatient-PortalInboxId
Message :5
Date :11/23/16 7:39:28 PM

-----------------------------------------------------------------------------

Method Name :SendReplytoPatient
Message :Inserting Records into Medflow.PatientPortalInboxHistory Table
Date :11/23/16 7:39:30 PM

-----------------------------------------------------------------------------

Method Name :SendReplytoPatient
Message :Inserting  into Medflow.PatientPortalInboxHistory Table 
Date :11/23/16 7:39:31 PM

-----------------------------------------------------------------------------

Method Name :SendReplytoPatient-PortalInboxId
Message :5
Date :11/23/16 7:52:04 PM

-----------------------------------------------------------------------------

Method Name :SendReplytoPatient
Message :Inserting Records into Medflow.PatientPortalInboxHistory Table
Date :11/23/16 7:52:04 PM

-----------------------------------------------------------------------------

Method Name :SendReplytoPatient
Message :Inserting  into Medflow.PatientPortalInboxHistory Table 
Date :11/23/16 7:52:06 PM

-----------------------------------------------------------------------------

Method Name :SendReplytoPatient
Message :Insertion complete and EMRMessageId is returned
Date :11/23/16 7:52:09 PM

-----------------------------------------------------------------------------

Method Name :SendReplytoPatient
Message :Inserting into Medflow.PatientPortalInboxHistory Completed
Date :11/23/16 7:52:10 PM

-----------------------------------------------------------------------------

Method Name :SendReplytoPatient
Message :Inserting  into Medflow.PortalQueueXML Table
Date :11/23/16 7:52:50 PM

-----------------------------------------------------------------------------

Method Name :SendReplytoPatient
Message :Insertion into Medflow.PortalQueueXML Table completed
Date :11/23/16 7:52:51 PM

-----------------------------------------------------------------------------

Method Name :SendReplytoPatient
Message :Creating Parameters for accessing the Medflow Url and sending the parameters to Medflow Patient Portal
Date :11/23/16 7:52:51 PM

-----------------------------------------------------------------------------

Method Name :SendAppointmentResponse
Message :Inserting  into Medflow.PortalQueueXML Table
Date :11/30/16 3:54:23 PM

-----------------------------------------------------------------------------

Method Name :SendAmendmentStatus
Message :Insertion into Medflow.PortalQueueXML Table completed
Date :11/30/16 3:54:23 PM

-----------------------------------------------------------------------------

Method Name :SendAppointmentResponse
Message :Parameters has been Created and now accessing Medflow's shared Api
Date :11/30/16 3:54:23 PM

-----------------------------------------------------------------------------

Method Name :SendAppointmentResponse
Message :Posting Created Parameters to the Medflow API
Date :11/30/16 3:54:23 PM

-----------------------------------------------------------------------------

Method Name :SendAppointmentResponse
Message :Data has been uploaded on the Medflow Patient portal Database
Date :11/30/16 3:54:28 PM

-----------------------------------------------------------------------------

Method Name :SendAppointmentResponse
Message :Success! Inserting into Medflow.PortalQueueXMLResponse Table
Date :11/30/16 3:54:28 PM

-----------------------------------------------------------------------------

Method Name :SendAppointmentResponse
Message :Error while inserting Medflow.PortalQueueXMl Table -The INSERT statement conflicted with the FOREIGN KEY constraint "PortalQueueXMLResponse_ActionTypeLookup_FK". The conflict occurred in database "PortalTesting", table "Medflow.PortalActionTypeLookup", column 'Id'.
The statement has been terminated.
Date :11/30/16 3:55:09 PM

-----------------------------------------------------------------------------

Method Name :SendAppointmentResponse
Message :Inserting  into Medflow.PortalQueueXML Table
Date :11/30/16 3:56:29 PM

-----------------------------------------------------------------------------

Method Name :SendAmendmentStatus
Message :Insertion into Medflow.PortalQueueXML Table completed
Date :11/30/16 3:56:32 PM

-----------------------------------------------------------------------------

Method Name :SendAppointmentResponse
Message :Parameters has been Created and now accessing Medflow's shared Api
Date :11/30/16 3:56:34 PM

-----------------------------------------------------------------------------

Method Name :SendAppointmentResponse
Message :Posting Created Parameters to the Medflow API
Date :11/30/16 3:56:42 PM

-----------------------------------------------------------------------------

Method Name :SendAppointmentResponse
Message :Data has been uploaded on the Medflow Patient portal Database
Date :11/30/16 3:56:49 PM

-----------------------------------------------------------------------------

Method Name :SendAppointmentResponse
Message :Success! Inserting into Medflow.PortalQueueXMLResponse Table
Date :11/30/16 3:56:50 PM

-----------------------------------------------------------------------------

Method Name :SendAppointmentResponse
Message :Error while inserting Medflow.PortalQueueXMl Table -The INSERT statement conflicted with the FOREIGN KEY constraint "PortalQueueXMLResponse_ActionTypeLookup_FK". The conflict occurred in database "PortalTesting", table "Medflow.PortalActionTypeLookup", column 'Id'.
The statement has been terminated.
Date :11/30/16 3:57:12 PM

-----------------------------------------------------------------------------

Method Name :SendAppointmentResponse
Message :Inserting  into Medflow.PortalQueueXML Table
Date :11/30/16 3:58:06 PM

-----------------------------------------------------------------------------

Method Name :SendAmendmentStatus
Message :Insertion into Medflow.PortalQueueXML Table completed
Date :11/30/16 3:58:06 PM

-----------------------------------------------------------------------------

Method Name :SendAppointmentResponse
Message :Parameters has been Created and now accessing Medflow's shared Api
Date :11/30/16 3:58:06 PM

-----------------------------------------------------------------------------

Method Name :SendAppointmentResponse
Message :Posting Created Parameters to the Medflow API
Date :11/30/16 3:58:06 PM

-----------------------------------------------------------------------------

Method Name :SendAppointmentResponse
Message :Updating Status into Medflow.PatientAmendmentInfo Table
Date :11/30/16 3:58:06 PM

-----------------------------------------------------------------------------

Method Name :SendAppointmentResponse
Message :Inserting  into Medflow.PortalQueueXML Table
Date :11/30/16 3:59:27 PM

-----------------------------------------------------------------------------

Method Name :SendAmendmentStatus
Message :Insertion into Medflow.PortalQueueXML Table completed
Date :11/30/16 3:59:27 PM

-----------------------------------------------------------------------------

Method Name :SendAppointmentResponse
Message :Parameters has been Created and now accessing Medflow's shared Api
Date :11/30/16 3:59:27 PM

-----------------------------------------------------------------------------

Method Name :SendAppointmentResponse
Message :Posting Created Parameters to the Medflow API
Date :11/30/16 3:59:27 PM

-----------------------------------------------------------------------------

Method Name :SendAppointmentResponse
Message :Updating Status into Medflow.PatientAmendmentInfo Table
Date :11/30/16 3:59:27 PM

-----------------------------------------------------------------------------

Method Name :SendAppointmentResponse
Message :Updating Status into Medflow.PatientAmendmentInfo Completed
Date :11/30/16 3:59:27 PM

-----------------------------------------------------------------------------

